{
	"English":{
		"WARRANTY":"Warranty: ",
		"REGARDS":"Sincerely,",
		"AZN":"AZN",
		"AZNQ":"Q.",
		"USD":"Dollar",
		"USDQ":"Cent",
		"EURO":"Evro",
		"EUROQ":"Evrocent",
		"VALIDTILL":"Offer Valid Till: ",
		"PAGE":"Page ",
		"VAT18":"18% VAT",
		"INVTOTAL":"TOTAL, to be paid",
		"CASHM":"CASH MEMO",
		"DELIVNOTE":"DELIVERY NOTE",
		"DELIVERED":"delivered.",
		"NOTE":"Note.",
		"ATTACH1":"ATTACHMENT #1 ",
		"CONTRNUM":"to the Contract # ",
		"TOTAL":"TOTAL (",
		"SUBTOTAL":"Sub Total (",
		"OFFER":"COMMERCIAL OFFER",
		"INVOICE":"I N V O I C E",
		"PAYMENTINFO":"Payment should be done in AZN according to the exchange rate at the NBA on the date of payment.",
		"NAME":"  Description",
		"COUNT":"Qty.",
		"PRICE":"Unit Price",
		"AMOUNT":"Total Price",
		"DELIVERYDAYS":"Delivery (days)",
		"TOWHERE":"TO:",
		"TOWHOM":"ATTN:",
		"DATE":"DATE:",
		"PAYER":"Payee:",
		"ACCOUNT":"Account №:",
		"CORRESP.AC":"Corresp.A/C",
		"FAD":"Code:",
		"DIRECTOR":"Director:",
		"MAINACCOUNTANT":"Chief Accountant:",
		"SERVICEDIRECTOR":"Service Center Manager",
		"SERVICEDIRECTORREPLACE":"Financial Executive Officer",
		"MONTHS":{
			"JAN":"January",
			"FEB":"February",
			"MAR":"March",
			"APR":"April",
			"MAY":"May",
			"JUN":"June",
			"JUL":"July",
			"AUG":"August",
			"SEP":"September",
			"OCT":"October",
			"NOV":"November",
			"DEC":"December"
		},
		"MONTHS_SHORT":{
			"JAN":"Yan.",
			"FEB":"Fev.",
			"MAR":"Mar.",
			"APR":"Apr.",
			"MAY":"May.",
			"JUN":"June",
			"JUL":"July",
			"AUG":"Aug.",
			"SEP":"Sep.",
			"OCT":"Oct.",
			"NOV":"Nov.",
			"DEC":"Dec."
		},
		"NAMES":{
			"1_0":"Anar Aligioulov",
			"1_1":"Ulvi Aligioulov",
			"1_2":"Anar Aligioulov",
			"2_0":"Dilara Babayeva",
			"2_1":"Fakhri Mamedov",
			"2_2":"Dilara Babayeva"
		},
		"DIGITS":{
			"0":"Zero ",
			"1":"One",
			"2":"Two",
			"3":"Three",
			"4":"Four",
			"5":"Five",
			"6":"Six",
			"7":"Seven",
			"8":"Eight",
			"9":"Nine",
			"10":"Ten",
			"11":"Eleven",
			"12":"Twelve",
			"13":"Thirteen",
			"14":"Fourteen",
			"15":"Fifteen",
			"16":"Sixteen",
			"17":"Seventeen",
			"18":"Eighteen",
			"19":"Nineteen",
			"20":"Twenty",
			"30":"Thirty",
			"40":"Forty",
			"50":"Fifty",
			"60":"Sixty",
			"70":"Seventy",
			"80":"Eighty",
			"90":"Ninety",
			"100":"Hundred",
			"1000":"Thousand",
			"1000s":"Thousands",
			"1000000":"Million",
			"1000000s":"Millions",
			"1000000000":"Billion",
			"1000000000s":"Billions"
		}
	},
	"Russian":{
		"WARRANTY":"Гарантия: ",
		"REGARDS":"C уважением,",
		"AZN":"Ман.",
		"AZNQ":"Коп.",
		"USD":"Дол.",
		"USDQ":"Цен.",
		"EURO":"Евро",
		"EUROQ":"Евроцен.",
		"VALIDTILL":"Действительно до: ",
		"PAGE":"Стр. ",
		"VAT18":"18% НДС",
		"INVTOTAL":"ИТОГО К ОПЛАТЕ",
		"CASHM":"Уведомление об Оплате",
		"DELIVNOTE":"Уведомление о Поставке",
		"DELIVERED":"поставленно",
		"NOTE":"Примечание",
		"ATTACH1":"ПРИЛОЖЕНИЕ N:1 ",
		"CONTRNUM":"к Договору N: ",
		"TOTAL":"ИТОГО (",
		"SUBTOTAL":"Итого (",
		"OFFER":"КОММЕРЧЕСКОЕ ПРЕДЛОЖЕНИЕ",
		"INVOICE":"СЧЕТ-ФАКТУРА",
		"PAYMENTINFO":"Оплата должна быть произведена в манатах по курсу НБА на день оплаты.",
		"NAME":"  Наименование / Описание",
		"COUNT":"Кол-во",
		"PRICE":"Цена",
		"AMOUNT":"Всего",
		"DELIVERYDAYS":"Поставка (дней)",
		"TOWHERE":"Куда:",
		"TOWHOM":"Кому:",
		"DATE":"Дата:",
		"PAYER":"Плательщик:",
		"ACCOUNT":"Счет №",
		"CORRESP.AC":"Кор. Счет №",
		"FAD":"Код:",
		"DIRECTOR":"Директор",
		"MAINACCOUNTANT":"Главный Бухгалтер",
		"SERVICEDIRECTOR":"Управляющий Сервис-Центром",
		"SERVICEDIRECTORREPLACE":"Зам.Управляющего по финансовой части",
		"MONTHS":{
			"JAN":"Января",
			"FEB":"Февраля",
			"MAR":"Марта",
			"APR":"Апреля",
			"MAY":"Мая",
			"JUN":"Июня",
			"JUL":"Июля",
			"AUG":"Августа",
			"SEP":"Сентября",
			"OCT":"Октября",
			"NOV":"Ноября",
			"DEC":"Декабря"
		},
		"MONTHS_SHORT":{
			"JAN":"Янв.",
			"FEB":"Фев.",
			"MAR":"Мар.",
			"APR":"Апр.",
			"MAY":"Мая.",
			"JUN":"Июн.",
			"JUL":"Июл.",
			"AUG":"Авг.",
			"SEP":"Сен.",
			"OCT":"Окт.",
			"NOV":"Ноя.",
			"DEC":"Дек."
		},
		"NAMES":{
			"1_0":"Анар Алигюлов",
			"1_1":"Ульви Алигюлов",
			"1_2":"Анар Алигюлов",
			"2_0":"Диляра Бабаева",
			"2_1":"Фахри Мамедов",
			"2_2":"Диляра Бабаева"
		}
		"NAMES":{
			"1_0":"Anar Aligioulov",
			"1_1":"Ulvi Aligioulov",
			"1_2":"Anar Aligioulov",
			"2_0":"Dilara Babayeva",
			"2_1":"Fakhri Mamedov",
			"2_2":"Dilara Babayeva"
		},
		"DIGITS":{
			"0":"Ноль ",
			"1":"Один",
			"2":"Два",
			"3":"Три",
			"4":"Четыре",
			"5":"Пять",
			"6":"Шесть",
			"7":"Семь",
			"8":"Восемь",
			"9":"Девять",
			"10":"Десять",
			"11":"Одиннадцать",
			"12":"Двенадцать",
			"13":"Тренадцать",
			"14":"Четырнадцать",
			"15":"Пятнадцать",
			"16":"Шестнадцать",
			"17":"Семнадцать",
			"18":"Восемнадцать",
			"19":"Девятнадцать",
			"20":"Двадцать",
			"30":"Тридцать",
			"40":"Сорок",
			"50":"Пятьдесят",
			"60":"Шестьдесят",
			"70":"Семьдесят",
			"80":"Восемьдесят",
			"90":"Девяносто",
			"100":"Сто",
			"200":"Двести",
			"300":"Триста",
			"400":"Четыреста",
			"500":"Пятьсот",
			"600":"Шестьсот",
			"700":"Семьсот",
			"800":"Восемьсот",
			"900":"Девятьсот",
			"1000":"Тысяча",
			"1000s":"Тысячи",
			"1000ss":"Тысяч",
			"1000000":"Миллион",
			"1000000s":"Миллиона",
			"1000000ss":"Миллионов",
			"1000000000":"Миллиард",
			"1000000000s":"Миллиарда",
			"1000000000ss":"Миллиардов",
			"1s":"Одна",
			"2s":"Две",
			"AZN":"Манат",
			"AZNs":"Маната",
			"AZNss":"Манатов"
		}
	}
	"Azerbaycan":{
		"WARRANTY":"Zəmanət: ",
		"REGARDS":"Hörmətlə,",
		"AZN":"Manat",
		"AZNQ":"Qəpik",
		"USD":"Dollar",
		"USDQ":"Sent",
		"EURO":"Avro",
		"EUROQ":"Avrosent",
		"VALIDTILL":"Qüvvədədir: ",
		"PAGE":"",
		"VAT18":"18% ƏDV",
		"INVTOTAL":"YEKUNU",
		"CASHM":"CASH MEMO",
		"DELIVNOTE":"DELIVERY NOTE",
		"DELIVERED":"delivered.",
		"NOTE":"note.",
		"ATTACH1":"1 No.-li ƏLAVƏ",
		"CONTRNUM":" No.-li müqavələyə əsasən",
		"TOTAL":"CƏMİ (",
		"SUBTOTAL":"Cəmi (",
		"OFFER":"QİYMƏTLƏR TƏKLİFİ",
		"INVOICE":"HESAB - FAKTURA",
		"PAYMENTINFO":"Ödəniş Azərbaycan Respublikasının manatında Milli Bankın ödəniş gününə olan ABŞ dolların məzənnəsinə əsasən ödənilməlidir",
		"NAME":" Adı",
		"COUNT":"Sayı",
		"PRICE":"Qiyməti",
		"AMOUNT":"Məbləğ",
		"DELIVERYDAYS":"Təhvil müddəti",
		"TOWHERE":"Hara:",
		"TOWHOM":"Kimə:",
		"DATE":"Tarix:",
		"PAYER":"Ödəyən:",
		"ACCOUNT":"Hesab №:",
		"CORRESP.AC":"M.h.:",
		"FAD":"FAD:",
		"DIRECTOR":"Direktor:",
		"MAINACCOUNTANT":"Baş mühasib:",
		"SERVICEDIRECTOR":"Servis mərkəzinin müdürü",
		"SERVICEDIRECTORREPLACE":"Servis mərkəzinin müdürünün maliyyə üzrə müavini",
		"MONTHS":{
			"JAN":"Yanvar",
			"FEB":"Fevral",
			"MAR":"Mart",
			"APR":"Aprel",
			"MAY":"May",
			"JUN":"Iyün",
			"JUL":"İyül",
			"AUG":"Avgust",
			"SEP":"Sentyabr",
			"OCT":"Octyabr",
			"NOV":"Noyabr",
			"DEC":"Dekabr"
		},
		"MONTHS_SHORT":{
			"JAN":"Yan.",
			"FEB":"Fev.",
			"MAR":"Mar.",
			"APR":"Apr.",
			"MAY":"May.",
			"JUN":"Iyn.",
			"JUL":"İyl.",
			"AUG":"Avg.",
			"SEP":"Sen.",
			"OCT":"Oct.",
			"NOV":"Noy.",
			"DEC":"Dek."
		},
		"NAMES":{
			"1_0":"Anar Əligülöv",
			"1_1":"Əligülöv Ü.V.",
			"1_2":"Anar Əligülöv",
			"2_0":"Dilarə Babayeva",
			"2_1":"Məmmədov F.F.",
			"2_2":"Dilarə Babayeva"
		},
		"DIGITS":{
			"0":"Sıfır ",
			"1":"Bir",
			"2":"İki",
			"3":"Üç",
			"4":"Dörd",
			"5":"Beş",
			"6":"Altı",
			"7":"Yeddi",
			"8":"Səkkiz",
			"9":"Doqquz",
			"10":"On",
			"20":"İyirmi",
			"30":"Otuz",
			"40":"Qırx",
			"50":"Əlli",
			"60":"Altmış",
			"70":"Yetmiş",
			"80":"Səksən",
			"90":"Doqsan",
			"100":"Yüz",
			"1000":"Min",
			"1000s":"Min",
			"1000000":"Milion",
			"1000000s":"Milion",
			"1000000000":"Miliard",
			"1000000000s":"Miliard"
		}
	}
}